?CGMAS.LIB
?EXMAS.LIB
?EXPAS.LIB
?GAMAS.LIB
?GEMAS.LIB
?GIMAS.LIB
?GLFAS.LIB
?GMMAS.LIB
?GPMAS.LIB
?GSMAS.LIB
?GTMAS.LIB
?GVMAS.LIB
?GVMX.LIB
?LTMAS.LIB
?PAMAS.LIB
?PRMAS.LIB
?TBMAS.LIB
?TDSAS.LIB
?TELM.LIB
?TIMAS.LIB
?TRMAS.LIB
?WBSAS.LIB
?ROTARY.LIB
?SPM000773.LIB
?SPM001171.LIB
?SPM001249.LIB
?SPM001302.LIB
?SPM1109RI.LIB
?S000769.LIB
?S000886.LIB
?S000944.LIB
?S000954.LIB
?S000958.LIB
?S001017.LIB
?S001065.LIB
?S001071.LIB
?S001158.LIB
?S001171.LIB
?S001243.LIB
?S001274.LIB
?S001315.LIB
?S001373.LIB
?S001466.LIB
?S001489.LIB
?S001491.LIB
?S001495.LIB
?S001507.LIB
?S001522.LIB
?S001543.LIB
?S001555.LIB
?S001565.LIB
?S001568.LIB
?S001583.LIB
